…
<figure>
<img src="images/tidydata.jpg" style="width:80.0%"
alt="by @allison_horst" />
<figcaption aria-hidden="true">by <span class="citation"
data-cites="allison_horst">@allison_horst</span></figcaption>
</figure>

Bajo estos lineamientos y con la ayuda de las funciones de perucenso,
podemos generar tablas ordenadas como la siguiente:

``` r
get_tab_10("rawdata/08TOMO_02.xlsx", 
+            sheet = 5, dep_name = "CUSCO")

# A tibble: 15,575 × 8
   dep_name provincia distrito distribucion sexo    rango_etareo     dificultad                    poblacion
   <chr>    <chr>     <chr>    <chr>        <chr>   <chr>            <chr>                             <dbl>
 1 CUSCO    CUSCO     CUSCO    URBANA       Hombres Menores de 1 año Ver, aún usando anteojos             NA
 2 CUSCO    CUSCO     CUSCO    URBANA       Hombres Menores de 1 año Oír, aún usando audífonos            NA
 3 CUSCO    CUSCO     CUSCO    URBANA       Hombres Menores de 1 año Hablar o comunicarse, aún us…         3
 4 CUSCO    CUSCO     CUSCO    URBANA       Hombres Menores de 1 año Moverse o caminar para usar …         8
 5 CUSCO    CUSCO     CUSCO    URBANA       Hombres Menores de 1 año Entender o aprender (concent…         2
 6 CUSCO    CUSCO     CUSCO    URBANA       Hombres Menores de 1 año Relacionarse con los demás p…        NA
 7 CUSCO    CUSCO     CUSCO    URBANA       Hombres Menores de 1 año Ninguna                             788
 8 CUSCO    CUSCO     CUSCO    URBANA       Hombres 1 a 5 años       Ver, aún usando anteojos             21
 9 CUSCO    CUSCO     CUSCO    URBANA       Hombres 1 a 5 años       Oír, aún usando audífonos             9
10 CUSCO    CUSCO     CUSCO    URBANA       Hombres 1 a 5 años       Hablar o comunicarse, aún us…        43
# ℹ 15,565 more rows
# ℹ Use `print(n = ...)` to see more rows
```
…
