…
``` r
library(readxl)
df <- read_xlsx(inei_file)
#> New names:
#> • `` -> `...2`
#> • `` -> `...3`
#> • `` -> `...4`
#> • `` -> `...5`
#> • `` -> `...6`
#> • `` -> `...7`
#> • `` -> `...8`
#> • `` -> `...9`
#> • `` -> `...10`
df
#> # A tibble: 14,648 × 10
#>    CUADRO Nº 1: POBLACIÓ…¹ ...2  ...3  ...4  ...5  ...6  ...7  ...8  ...9  ...10
#>    <chr>                   <chr> <chr> <chr> <chr> <chr> <chr> <chr> <chr> <chr>
#>  1 Provincia, distrito y … Total Pobl… <NA>  Total Urba… <NA>  Total Rural <NA> 
#>  2 <NA>                    <NA>  Homb… Muje… <NA>  Homb… Muje… <NA>  Homb… Muje…
#>  3 <NA>                    <NA>  <NA>  <NA>  <NA>  <NA>  <NA>  <NA>  <NA>  <NA> 
#>  4 DEPARTAMENTO CUSCO      1205… 5965… 6090… 7312… 3564… 3748… 4742… 2400… 2341…
#>  5 <NA>                    <NA>  <NA>  <NA>  <NA>  <NA>  <NA>  <NA>  <NA>  <NA> 
#>  6 Menores de 1 año        18706 9537  9169  11562 5911  5651  7144  3626  3518 
#>  7 De 1 a 4 años           83186 42490 40696 50276 25683 24593 32910 16807 16103
#>  8 1 año                   19181 9747  9434  11774 5974  5800  7407  3773  3634 
#>  9 2 años                  20452 10464 9988  12450 6390  6060  8002  4074  3928 
#> 10 3 años                  21393 10876 10517 12889 6548  6341  8504  4328  4176 
#> # ℹ 14,638 more rows
#> # ℹ abbreviated name:
#> #   ¹​`CUADRO Nº 1: POBLACIÓN CENSADA, POR ÁREA URBANA Y RURAL; Y SEXO, SEGÚN PROVINCIA, DISTRITO Y EDADES SIMPLES`
```
…
La función `get_tab_1()` nos permite recuperar los datos de la tabla
titulada: ‘POBLACIÓN CENSADA, POR ÁREA URBANA Y RURAL; Y SEXO, SEGÚN
PROVINCIA, DISTRITO Y EDADES SIMPLES’. Esta función requiere dos
argumentos para su ejecución:

1.  `file`: corresponde a la ruta del archivo que estamos intentando
    leer.

2.  `dep_name`: debe contener el nombre del departamento del cual
    estamos recuperando la información. Por ejemplo, ‘CUSCO’.

``` r

cusco
#> # A tibble: 42,952 × 7
#>    departamento provincia distrito distribucion sexo  edad             poblacion
#>    <chr>        <chr>     <chr>    <chr>        <chr> <chr>                <dbl>
#>  1 CUSCO        CUSCO     CUSCO    urbano       varon Menores de 1 año       797
#>  2 CUSCO        CUSCO     CUSCO    urbano       mujer Menores de 1 año       777
#>  3 CUSCO        CUSCO     CUSCO    rural        varon Menores de 1 año        23
#>  4 CUSCO        CUSCO     CUSCO    rural        mujer Menores de 1 año        20
#>  5 CUSCO        CUSCO     CUSCO    urbano       varon 1 año                  794
#>  6 CUSCO        CUSCO     CUSCO    urbano       mujer 1 año                  738
#>  7 CUSCO        CUSCO     CUSCO    rural        varon 1 año                   22
#>  8 CUSCO        CUSCO     CUSCO    rural        mujer 1 año                   30
#>  9 CUSCO        CUSCO     CUSCO    urbano       varon 2 años                 901
#> 10 CUSCO        CUSCO     CUSCO    urbano       mujer 2 años                 801
#> # ℹ 42,942 more rows
```
…
Recuperar la información por distrito.

``` r
dist_cusco <- cusco |> 
  dplyr::group_by(distrito) |> 
  dplyr::summarise(poblacion = sum(poblacion, na.rm = TRUE))

dist_cusco
#> # A tibble: 112 × 2
#>    distrito       poblacion
#>    <chr>              <dbl>
#>  1 ACCHA               3028
#>  2 ACOMAYO             4532
#>  3 ACOPÍA              2650
#>  4 ACOS                2242
#>  5 ALTO PICHIGUA       1934
#>  6 ANCAHUASI           6784
#>  7 ANDAHUAYLILLAS      5797
#>  8 ANTA               21674
#>  9 CACHIMAYO           2382
#> 10 CAICAY              2716
#> # ℹ 102 more rows
```
…
